Removed Pin From Net: NetName=5V Pin=POWER-4
Added Component: Designator=C1(6-0805_N)
Added Component: Designator=C2(6-0805_N)
Added Component: Designator=C3(6-0805_N)
Added Component: Designator=C4(6-0805_N)
Added Component: Designator=C5(6-0805_N)
Added Component: Designator=D1(IL300)
Added Component: Designator=D2(LED-0)
Added Component: Designator=ECG_EMG(HEADER_ECG_EMG)
Added Component: Designator=EEG(HEADER_EEG)
Added Component: Designator=GSR(HEADER_GSR)
Added Component: Designator=Piezo(Piezo)
Added Component: Designator=Q1(SOT23_N)
Added Component: Designator=R1(6-0805_N)
Added Component: Designator=R2(6-0805_N)
Added Component: Designator=R3(6-0805_N)
Added Component: Designator=R4(6-0805_N)
Added Component: Designator=R5(VR3)
Added Component: Designator=R6(6-0805_N)
Added Component: Designator=R7(6-0805_N)
Added Component: Designator=R8(6-0805_N)
Added Component: Designator=U1(SOIC-SN8_N)
Added Component: Designator=U2(AM1D-0505SH60NZ)
Added Component: Designator=U3(B0505S-1WR2)
Added Pin To Net: NetName=GND Pin=C1-1
Added Pin To Net: NetName=GND Pin=C2-1
Added Pin To Net: NetName=GND Pin=C4-1
Added Pin To Net: NetName=AD2 Pin=D1-4
Added Pin To Net: NetName=GND Pin=D2-2
Added Pin To Net: NetName=AD1 Pin=ECG_EMG-0
Added Pin To Net: NetName=GND Pin=ECG_EMG-2
Added Pin To Net: NetName=AD0 Pin=EEG-0
Added Pin To Net: NetName=GND Pin=EEG-2
Added Pin To Net: NetName=GND Pin=Piezo-0
Added Pin To Net: NetName=IO13 Pin=Q1-2
Added Pin To Net: NetName=AD2 Pin=R4-1
Added Pin To Net: NetName=GND Pin=R4-2
Added Pin To Net: NetName=GND Pin=R5-2
Added Pin To Net: NetName=AD3 Pin=R5-3
Added Pin To Net: NetName=IO12 Pin=R6-1
Added Pin To Net: NetName=IO13 Pin=R8-1
Added Pin To Net: NetName=GND Pin=U2-1
Added Pin To Net: NetName=GND Pin=U3-0
Added Pin To Net: NetName=+5V_ARD Pin=C4-2
Added Pin To Net: NetName=+5V_ARD Pin=D1-5
Added Pin To Net: NetName=+5V_ARD Pin=POWER-1
Added Pin To Net: NetName=+5V_ARD Pin=Q1-1
Added Pin To Net: NetName=+5V_ARD Pin=R5-1
Added Pin To Net: NetName=+5V_ARD Pin=U2-0
Added Pin To Net: NetName=+5V_ARD Pin=U3-1
Added Net: Name=+5V_ARD
Added Pin To Net: NetName=+VDCDC Pin=C3-2
Added Pin To Net: NetName=+VDCDC Pin=C5-2
Added Pin To Net: NetName=+VDCDC Pin=D1-2
Added Pin To Net: NetName=+VDCDC Pin=R1-2
Added Pin To Net: NetName=+VDCDC Pin=U1-8
Added Pin To Net: NetName=+VDCDC Pin=U2-3
Added Pin To Net: NetName=+VDCDC Pin=U3-3
Added Net: Name=+VDCDC
Added Pin To Net: NetName=-VDCDC Pin=C3-1
Added Pin To Net: NetName=-VDCDC Pin=C5-1
Added Pin To Net: NetName=-VDCDC Pin=D1-0
Added Pin To Net: NetName=-VDCDC Pin=GSR-2
Added Pin To Net: NetName=-VDCDC Pin=R2-1
Added Pin To Net: NetName=-VDCDC Pin=U1-4
Added Pin To Net: NetName=-VDCDC Pin=U2-2
Added Pin To Net: NetName=-VDCDC Pin=U3-2
Added Net: Name=-VDCDC
Added Pin To Net: NetName=5V_IN Pin=POWER-4
Added Net: Name=5V_IN
Added Pin To Net: NetName=NetC1_2 Pin=C1-2
Added Pin To Net: NetName=NetC1_2 Pin=EEG-1
Added Net: Name=NetC1_2
Added Pin To Net: NetName=NetC2_2 Pin=C2-2
Added Pin To Net: NetName=NetC2_2 Pin=ECG_EMG-1
Added Net: Name=NetC2_2
Added Pin To Net: NetName=NetD1_1 Pin=D1-1
Added Pin To Net: NetName=NetD1_1 Pin=R3-2
Added Net: Name=NetD1_1
Added Pin To Net: NetName=NetD1_3 Pin=D1-3
Added Pin To Net: NetName=NetD1_3 Pin=R2-2
Added Pin To Net: NetName=NetD1_3 Pin=U1-2
Added Net: Name=NetD1_3
Added Pin To Net: NetName=NetD2_1 Pin=D2-1
Added Pin To Net: NetName=NetD2_1 Pin=R6-2
Added Net: Name=NetD2_1
Added Pin To Net: NetName=NetGSR_0 Pin=GSR-0
Added Pin To Net: NetName=NetGSR_0 Pin=U1-3
Added Net: Name=NetGSR_0
Added Pin To Net: NetName=NetGSR_1 Pin=GSR-1
Added Pin To Net: NetName=NetGSR_1 Pin=R1-1
Added Net: Name=NetGSR_1
Added Pin To Net: NetName=NetPiezo_1 Pin=Piezo-1
Added Pin To Net: NetName=NetPiezo_1 Pin=R7-2
Added Pin To Net: NetName=NetPiezo_1 Pin=R8-2
Added Net: Name=NetPiezo_1
Added Pin To Net: NetName=NetQ1_3 Pin=Q1-3
Added Pin To Net: NetName=NetQ1_3 Pin=R7-1
Added Net: Name=NetQ1_3
Added Pin To Net: NetName=NetR3_1 Pin=R3-1
Added Pin To Net: NetName=NetR3_1 Pin=U1-1
Added Net: Name=NetR3_1
Change Class Name : Old Net Name=ArduinoUnoShield New Net Name=UnoShield
Added Member To Class: ClassName=UnoShield Member=Component C1 Cap
Added Member To Class: ClassName=UnoShield Member=Component C2 Cap
Added Member To Class: ClassName=UnoShield Member=Component C3 Cap
Added Member To Class: ClassName=UnoShield Member=Component C4 Cap
Added Member To Class: ClassName=UnoShield Member=Component C5 Cap
Added Member To Class: ClassName=UnoShield Member=Component D1 IL300
Added Member To Class: ClassName=UnoShield Member=Component D2 LED
Added Member To Class: ClassName=UnoShield Member=Component ECG_EMG HEADER_ECG_EMG
Added Member To Class: ClassName=UnoShield Member=Component EEG HEADER_EEG
Added Member To Class: ClassName=UnoShield Member=Component GSR HEADER_GSR
Added Member To Class: ClassName=UnoShield Member=Component Piezo
Added Member To Class: ClassName=UnoShield Member=Component Q1 MOSFET-N
Added Member To Class: ClassName=UnoShield Member=Component R1 Res1
Added Member To Class: ClassName=UnoShield Member=Component R2 Res1
Added Member To Class: ClassName=UnoShield Member=Component R3 Res1
Added Member To Class: ClassName=UnoShield Member=Component R4 Res1
Added Member To Class: ClassName=UnoShield Member=Component R5 Res Tap
Added Member To Class: ClassName=UnoShield Member=Component R6 Res1
Added Member To Class: ClassName=UnoShield Member=Component R7 Res1
Added Member To Class: ClassName=UnoShield Member=Component R8 Res1
Added Member To Class: ClassName=UnoShield Member=Component U1 MCP6022-E/SN
Added Member To Class: ClassName=UnoShield Member=Component U2 AM1D-0505SH60NZ
Added Member To Class: ClassName=UnoShield Member=Component U3 MORNSUN
Change Room Name: Old Name=ArduinoUnoShield New Name=UnoShield
Change Room Scope: Old Scope=InComponentClass('ArduinoUnoShield') New Scope=InComponentClass('UnoShield')
